,,missing_left_hand,missing_right_hand,missing_pose,missing_pose_partly,consecutive_left_hand,consecutive_right_hand,consecutive_pose,consecutive_pose_partly,consecutive_missing_max,total_missing_data_frames,counts
ctvrtek,1,"41, 42, 43, 44, 45, 46, 48, 49, 50",,,,6,0,0,0,6,9,6.0
dcera,2,"37, 38, 39, 40, 41, 42, 43, 44, 46, 48",,,,8,0,0,0,8,10,8.0
dcera,3,"34, 35, 38, 39, 40, 41, 42, 43, 44, 48",,,,7,0,0,0,7,10,7.0
dite,15,"0, 1, 2, 3, 4, 5, 8, 9, 10, 11, 12, 13, 14, 15, 16, 17, 18, 19, 20, 21, 22, 23, 28, 33, 34, 35",,,,16,0,0,0,16,26,16.0
nedele,2,"40, 41, 42","37, 38, 39, 40, 41, 42, 65",,,1,6,0,0,1,7,6.0
patek,2,"30, 44, 50, 51, 52, 53, 54, 56","19, 21, 22, 23, 30, 31, 34, 43, 45, 47",,,5,3,0,0,3,17,5.0
patek,14,"42, 43, 57, 58, 60","23, 24, 25, 29, 30, 31, 32, 33, 34, 52, 59",,,2,6,0,0,3,16,6.0
